<?xml version="1.0" encoding="UTF-8"?>
<session version="1.0">
<refactoring comment="Delete 3 resources" deleteContents="true" description="Delete 3 resources" element1="/Ejercicios" element2="/Ejercicios eclipse" element3="/Trabajos" flags="7" id="org.eclipse.ltk.core.refactoring.delete.resources" resources="3" stamp="1570033333905"/>
</session>